informe3/datos/derivador4000hz.csv

Record Length,2500,Points,-249.99998277E-6,199.99998808E-3,,Record Length,2500,Points,-249.99998277E-6,219.99999881E-3,
Sample Interval,200.00000234E-9,s,-249.79998125E-6,159.99999642E-3,,Sample Interval,200.00000234E-9,s,-249.79998125E-6,219.99999881E-3,
Trigger Point,1.2500000E3,Samples,-249.59997972E-6,199.99998808E-3,,Trigger Point,1.2500000E3,Samples,-249.59997972E-6,219.99999881E-3,
,,,-249.39997820E-6,199.99998808E-3,,,,,-249.39997820E-6,219.99999881E-3,
,,,-249.19997668E-6,199.99998808E-3,,,,,-249.19997668E-6,219.99999881E-3,
,,,-248.99997516E-6,199.99998808E-3,,,,,-248.99997516E-6,219.99999881E-3,
Source,CH1,,-248.79997363E-6,199.99998808E-3,,Source,CH2,,-248.79997363E-6,219.99999881E-3,
Vertical Units,Volts,,-248.59997211E-6,199.99998808E-3,,Vertical Units,Volts,,-248.59997211E-6,219.99999881E-3,
Vertical Scale,999.999977648E-3,,-248.39997059E-6,199.99998808E-3,,Vertical Scale,499.999988824E-3,,-248.39997059E-6,219.99999881E-3,
Vertical Offset,0,,-248.19996906E-6,199.99998808E-3,,Vertical Offset,0,,-248.19996906E-6,219.99999881E-3,
Horizontal Units,s,,-247.99999665E-6,199.99998808E-3,,Horizontal Units,s,,-247.99999665E-6,219.99999881E-3,
Horizontal Scale,50.00000058E-6,,-247.79999512E-6,199.99998808E-3,,Horizontal Scale,50.00000058E-6,,-247.79999512E-6,219.99999881E-3,
Pt Fmt,Y,,-247.59999360E-6,199.99998808E-3,,Pt Fmt,Y,,-247.59999360E-6,219.99999881E-3,
Yzero,2.0000000,,-247.39999208E-6,199.99998808E-3,,Yzero,1.2400000,,-247.39999208E-6,219.99999881E-3,
Probe Atten,1.000000,,-247.19999055E-6,199.99998808E-3,,Probe Atten,1.000000,,-247.19999055E-6,219.99999881E-3,
,,,-246.99998903E-6,199.99998808E-3,,,,,-246.99998903E-6,219.99999881E-3,
Note,TBS 1052B-EDU - 19:19:17   23/09/2025,,-246.79998751E-6,199.99998808E-3,,Note,TBS 1052B-EDU - 19:19:17   23/09/2025,,-246.79998751E-6,219.99999881E-3,
,,,-246.59998599E-6,199.99998808E-3,,,,,-246.59998599E-6,219.99999881E-3,
,,,-246.39998446E-6,239.99999464E-3,,,,,-246.39998446E-6,219.99999881E-3,
,,,-246.19998294E-6,239.99999464E-3,,,,,-246.19998294E-6,219.99999881E-3,
,,,-245.99998142E-6,239.99999464E-3,,,,,-245.99998142E-6,219.99999881E-3,
,,,-245.79997989E-6,239.99999464E-3,,,,,-245.79997989E-6,219.99999881E-3,
,,,-245.59997837E-6,239.99999464E-3,,,,,-245.59997837E-6,219.99999881E-3,
,,,-245.39997685E-6,239.99999464E-3,,,,,-245.39997685E-6,219.99999881E-3,
,,,-245.19997532E-6,239.99999464E-3,,,,,-245.19997532E-6,219.99999881E-3,
,,,-244.99997380E-6,239.99999464E-3,,,,,-244.99997380E-6,219.99999881E-3,
,,,-244.79997228E-6,239.99999464E-3,,,,,-244.79997228E-6,219.99999881E-3,
,,,-244.59997076E-6,239.99999464E-3,,,,,-244.59997076E-6,219.99999881E-3,
,,,-244.39996923E-6,239.99999464E-3,,,,,-244.39996923E-6,219.99999881E-3,
,,,-244.19999681E-6,239.99999464E-3,,,,,-244.19999681E-6,219.99999881E-3,
,,,-243.99998074E-6,239.99999464E-3,,,,,-243.99998074E-6,219.99999881E-3,
,,,-243.79997922E-6,239.99999464E-3,,,,,-243.79997922E-6,219.99999881E-3,
,,,-243.59997769E-6,239.99999464E-3,,,,,-243.59997769E-6,219.99999881E-3,
,,,-243.39997617E-6,239.99999464E-3,,,,,-243.39997617E-6,219.99999881E-3,
,,,-243.19998920E-6,239.99999464E-3,,,,,-243.19998920E-6,219.99999881E-3,
,,,-242.99998768E-6,239.99999464E-3,,,,,-242.99998768E-6,219.99999881E-3,
,,,-242.79998615E-6,239.99999464E-3,,,,,-242.79998615E-6,219.99999881E-3,
,,,-242.59998463E-6,280.00000119E-3,,,,,-242.59998463E-6,219.99999881E-3,
,,,-242.39998311E-6,280.00000119E-3,,,,,-242.39998311E-6,219.99999881E-3,
,,,-242.19998159E-6,239.99999464E-3,,,,,-242.19998159E-6,219.99999881E-3,
,,,-241.99998006E-6,280.00000119E-3,,,,,-241.99998006E-6,219.99999881E-3,
,,,-241.79997854E-6,280.00000119E-3,,,,,-241.79997854E-6,219.99999881E-3,
,,,-241.59997702E-6,280.00000119E-3,,,,,-241.59997702E-6,219.99999881E-3,
,,,-241.39997549E-6,280.00000119E-3,,,,,-241.39997549E-6,219.99999881E-3,
,,,-241.19998852E-6,280.00000119E-3,,,,,-241.19998852E-6,219.99999881E-3,
,,,-240.99998700E-6,280.00000119E-3,,,,,-240.99998700E-6,219.99999881E-3,
,,,-240.79998548E-6,280.00000119E-3,,,,,-240.79998548E-6,219.99999881E-3,
,,,-240.59998395E-6,280.00000119E-3,,,,,-240.59998395E-6,219.99999881E-3,
,,,-240.39998243E-6,280.00000119E-3,,,,,-240.39998243E-6,219.99999881E-3,
,,,-240.19998091E-6,280.00000119E-3,,,,,-240.19998091E-6,219.99999881E-3,
,,,-239.99997939E-6,280.00000119E-3,,,,,-239.99997939E-6,219.99999881E-3,
,,,-239.79997786E-6,280.00000119E-3,,,,,-239.79997786E-6,219.99999881E-3,
,,,-239.59997634E-6,280.00000119E-3,,,,,-239.59997634E-6,219.99999881E-3,
,,,-239.39998937E-6,280.00000119E-3,,,,,-239.39998937E-6,219.99999881E-3,
,,,-239.19998785E-6,280.00000119E-3,,,,,-239.19998785E-6,219.99999881E-3,
,,,-238.99998632E-6,280.00000119E-3,,,,,-238.99998632E-6,219.99999881E-3,
,,,-238.79998480E-6,280.00000119E-3,,,,,-238.79998480E-6,219.99999881E-3,
,,,-238.59998328E-6,280.00000119E-3,,,,,-238.59998328E-6,219.99999881E-3,
,,,-238.39998175E-6,319.99999285E-3,,,,,-238.39998175E-6,219.99999881E-3,
,,,-238.19998023E-6,319.99999285E-3,,,,,-238.19998023E-6,219.99999881E-3,
,,,-237.99997871E-6,319.99999285E-3,,,,,-237.99997871E-6,219.99999881E-3,
,,,-237.79997719E-6,319.99999285E-3,,,,,-237.79997719E-6,219.99999881E-3,
,,,-237.59997566E-6,319.99999285E-3,,,,,-237.59997566E-6,219.99999881E-3,
,,,-237.39998869E-6,319.99999285E-3,,,,,-237.39998869E-6,219.99999881E-3,
,,,-237.19998717E-6,319.99999285E-3,,,,,-237.19998717E-6,219.99999881E-3,
,,,-236.99998565E-6,319.99999285E-3,,,,,-236.99998565E-6,219.99999881E-3,
,,,-236.79998412E-6,319.99999285E-3,,,,,-236.79998412E-6,219.99999881E-3,
,,,-236.59998260E-6,319.99999285E-3,,,,,-236.59998260E-6,219.99999881E-3,
,,,-236.39998108E-6,319.99999285E-3,,,,,-236.39998108E-6,219.99999881E-3,
,,,-236.19997955E-6,319.99999285E-3,,,,,-236.19997955E-6,219.99999881E-3,
,,,-235.99997803E-6,319.99999285E-3,,,,,-235.99997803E-6,219.99999881E-3,
,,,-235.79997651E-6,319.99999285E-3,,,,,-235.79997651E-6,219.99999881E-3,
,,,-235.59998954E-6,359.99998450E-3,,,,,-235.59998954E-6,219.99999881E-3,
,,,-235.39998801E-6,319.99999285E-3,,,,,-235.39998801E-6,219.99999881E-3,
,,,-235.19998649E-6,319.99999285E-3,,,,,-235.19998649E-6,219.99999881E-3,
,,,-234.99998497E-6,319.99999285E-3,,,,,-234.99998497E-6,219.99999881E-3,
,,,-234.79998345E-6,319.99999285E-3,,,,,-234.79998345E-6,239.99999464E-3,
,,,-234.59998192E-6,359.99998450E-3,,,,,-234.59998192E-6,219.99999881E-3,
,,,-234.39998040E-6,359.99998450E-3,,,,,-234.39998040E-6,219.99999881E-3,
,,,-234.19997888E-6,359.99998450E-3,,,,,-234.19997888E-6,219.99999881E-3,
,,,-233.99997735E-6,359.99998450E-3,,,,,-233.99997735E-6,219.99999881E-3,
,,,-233.79997583E-6,359.99998450E-3,,,,,-233.79997583E-6,219.99999881E-3,
,,,-233.59998886E-6,359.99998450E-3,,,,,-233.59998886E-6,219.99999881E-3,
,,,-233.39998734E-6,359.99998450E-3,,,,,-233.39998734E-6,219.99999881E-3,
,,,-233.19998581E-6,359.99998450E-3,,,,,-233.19998581E-6,219.99999881E-3,
,,,-232.99998429E-6,359.99998450E-3,,,,,-232.99998429E-6,219.99999881E-3,
,,,-232.79998277E-6,359.99998450E-3,,,,,-232.79998277E-6,219.99999881E-3,
,,,-232.59998125E-6,359.99998450E-3,,,,,-232.59998125E-6,219.99999881E-3,
,,,-232.39997972E-6,359.99998450E-3,,,,,-232.39997972E-6,219.99999881E-3,
,,,-232.19997820E-6,359.99998450E-3,,,,,-232.19997820E-6,219.99999881E-3,
,,,-231.99997668E-6,359.99998450E-3,,,,,-231.99997668E-6,219.99999881E-3,
,,,-231.79998971E-6,359.99998450E-3,,,,,-231.79998971E-6,219.99999881E-3,
,,,-231.59998818E-6,359.99998450E-3,,,,,-231.59998818E-6,219.99999881E-3,
,,,-231.39998666E-6,359.99998450E-3,,,,,-231.39998666E-6,219.99999881E-3,
,,,-231.19998514E-6,359.99998450E-3,,,,,-231.19998514E-6,219.99999881E-3,
,,,-230.99998361E-6,359.99998450E-3,,,,,-230.99998361E-6,219.99999881E-3,
,,,-230.79998209E-6,359.99998450E-3,,,,,-230.79998209E-6,219.99999881E-3,
,,,-230.59998057E-6,359.99998450E-3,,,,,-230.59998057E-6,219.99999881E-3,
,,,-230.39997905E-6,359.99998450E-3,,,,,-230.39997905E-6,219.99999881E-3,
,,,-230.19997752E-6,399.99997616E-3,,,,,-230.19997752E-6,219.99999881E-3,
,,,-229.99997600E-6,399.99997616E-3,,,,,-229.99997600E-6,219.99999881E-3,
,,,-229.79998903E-6,399.99997616E-3,,,,,-229.79998903E-6,219.99999881E-3,
,,,-229.59998751E-6,399.99997616E-3,,,,,-229.59998751E-6,239.99999464E-3,
,,,-229.39998598E-6,399.99997616E-3,,,,,-229.39998598E-6,219.99999881E-3,
,,,-229.19998446E-6,399.99997616E-3,,,,,-229.19998446E-6,219.99999881E-3,
,,,-228.99998294E-6,399.99997616E-3,,,,,-228.99998294E-6,219.99999881E-3,
,,,-228.79998141E-6,399.99997616E-3,,,,,-228.79998141E-6,219.99999881E-3,
,,,-228.59997989E-6,399.99997616E-3,,,,,-228.59997989E-6,219.99999881E-3,
,,,-228.39997837E-6,399.99997616E-3,,,,,-228.39997837E-6,239.99999464E-3,
,,,-228.19997685E-6,399.99997616E-3,,,,,-228.19997685E-6,239.99999464E-3,
,,,-227.99997532E-6,399.99997616E-3,,,,,-227.99997532E-6,219.99999881E-3,
,,,-227.79998835E-6,399.99997616E-3,,,,,-227.79998835E-6,219.99999881E-3,
,,,-227.59998683E-6,399.99997616E-3,,,,,-227.59998683E-6,239.99999464E-3,
,,,-227.39998531E-6,399.99997616E-3,,,,,-227.39998531E-6,219.99999881E-3,
,,,-227.19998378E-6,399.99997616E-3,,,,,-227.19998378E-6,219.99999881E-3,
,,,-226.99998226E-6,399.99997616E-3,,,,,-226.99998226E-6,219.99999881E-3,
,,,-226.79998074E-6,439.999997616E-3,,,,,-226.79998074E-6,219.99999881E-3,
,,,-226.59997921E-6,439.999997616E-3,,,,,-226.59997921E-6,219.99999881E-3,
,,,-226.39997769E-6,439.999997616E-3,,,,,-226.39997769E-6,219.99999881E-3,
,,,-226.19997617E-6,399.99997616E-3,,,,,-226.19997617E-6,219.99999881E-3,
,,,-225.99998920E-6,439.999997616E-3,,,,,-225.99998920E-6,219.99999881E-3,
,,,-225.79998767E-6,439.999997616E-3,,,,,-225.79998767E-6,219.99999881E-3,
,,,-225.59998615E-6,439.999997616E-3,,,,,-225.59998615E-6,239.99999464E-3,
,,,-225.39998463E-6,439.999997616E-3,,,,,-225.39998463E-6,219.99999881E-3,
,,,-225.19998311E-6,439.999997616E-3,,,,,-225.19998311E-6,219.99999881E-3,
,,,-224.99998158E-6,439.999997616E-3,,,,,-224.99998158E-6,219.99999881E-3,
,,,-224.79998006E-6,439.999997616E-3,,,,,-224.79998006E-6,239.99999464E-3,
,,,-224.59997854E-6,439.999997616E-3,,,,,-224.59997854E-6,219.99999881E-3,
,,,-224.39997701E-6,439.999997616E-3,,,,,-224.39997701E-6,219.99999881E-3,
,,,-224.19997549E-6,439.999997616E-3,,,,,-224.19997549E-6,219.99999881E-3,
,,,-223.99998852E-6,439.999997616E-3,,,,,-223.99998852E-6,239.99999464E-3,
,,,-223.79998700E-6,439.999997616E-3,,,,,-223.79998700E-6,219.99999881E-3,
,,,-223.59998547E-6,439.999997616E-3,,,,,-223.59998547E-6,219.99999881E-3,
,,,-223.39998395E-6,439.999997616E-3,,,,,-223.39998395E-6,219.99999881E-3,
,,,-223.19998243E-6,439.999997616E-3,,,,,-223.19998243E-6,219.99999881E-3,
,,,-222.99998091E-6,439.999997616E-3,,,,,-222.99998091E-6,219.99999881E-3,
,,,-222.79997938E-6,479.999989271E-3,,,,,-222.79997938E-6,219.99999881E-3,
,,,-222.59997786E-6,479.999989271E-3,,,,,-222.59997786E-6,219.99999881E-3,
,,,-222.39997634E-6,479.999989271E-3,,,,,-222.39997634E-6,239.99999464E-3,
,,,-222.19998937E-6,439.999997616E-3,,,,,-222.19998937E-6,239.99999464E-3,
,,,-221.99998784E-6,479.999989271E-3,,,,,-221.99998784E-6,239.99999464E-3,
,,,-221.79998632E-6,479.999989271E-3,,,,,-221.79998632E-6,239.99999464E-3,
,,,-221.59998480E-6,479.999989271E-3,,,,,-221.59998480E-6,239.99999464E-3,
,,,-221.39998327E-6,479.999989271E-3,,,,,-221.39998327E-6,219.99999881E-3,
,,,-221.19998175E-6,479.999989271E-3,,,,,-221.19998175E-6,219.99999881E-3,
,,,-220.99998023E-6,479.999989271E-3,,,,,-220.99998023E-6,219.99999881E-3,
,,,-220.79997871E-6,479.999989271E-3,,,,,-220.79997871E-6,219.99999881E-3,
,,,-220.59997718E-6,479.999989271E-3,,,,,-220.59997718E-6,219.99999881E-3,
,,,-220.39997566E-6,479.999989271E-3,,,,,-220.39997566E-6,219.99999881E-3,
,,,-220.19998869E-6,479.999989271E-3,,,,,-220.19998869E-6,219.99999881E-3,
,,,-219.99998717E-6,479.999989271E-3,,,,,-219.99998717E-6,239.99999464E-3,
,,,-219.79998564E-6,479.999989271E-3,,,,,-219.79998564E-6,239.99999464E-3,
,,,-219.59998412E-6,479.999989271E-3,,,,,-219.59998412E-6,219.99999881E-3,
,,,-219.39998260E-6,479.999989271E-3,,,,,-219.39998260E-6,219.99999881E-3,
,,,-219.19998107E-6,519.999980927E-3,,,,,-219.19998107E-6,239.99999464E-3,
,,,-218.99997955E-6,479.999989271E-3,,,,,-218.99997955E-6,239.99999464E-3,
,,,-218.79997803E-6,519.999980927E-3,,,,,-218.79997803E-6,219.99999881E-3,
,,,-218.59997651E-6,519.999980927E-3,,,,,-218.59997651E-6,239.99999464E-3,
,,,-218.39998954E-6,519.999980927E-3,,,,,-218.39998954E-6,219.99999881E-3,
,,,-218.19998801E-6,519.999980927E-3,,,,,-218.19998801E-6,219.99999881E-3,
,,,-217.99998649E-6,519.999980927E-3,,,,,-217.99998649E-6,219.99999881E-3,
,,,-217.79998497E-6,519.999980927E-3,,,,,-217.79998497E-6,219.99999881E-3,
,,,-217.59998344E-6,519.999980927E-3,,,,,-217.59998344E-6,239.99999464E-3,
,,,-217.39998192E-6,519.999980927E-3,,,,,-217.39998192E-6,219.99999881E-3,
,,,-217.19998040E-6,519.999980927E-3,,,,,-217.19998040E-6,219.99999881E-3,
,,,-216.99997887E-6,519.999980927E-3,,,,,-216.99997887E-6,219.99999881E-3,
,,,-216.79997735E-6,519.999980927E-3,,,,,-216.79997735E-6,219.99999881E-3,
,,,-216.59997583E-6,519.999980927E-3,,,,,-216.59997583E-6,239.99999464E-3,
,,,-216.39998886E-6,519.999980927E-3,,,,,-216.39998886E-6,239.99999464E-3,
,,,-216.19998734E-6,519.999980927E-3,,,,,-216.19998734E-6,219.99999881E-3,
,,,-215.99998581E-6,519.999980927E-3,,,,,-215.99998581E-6,219.99999881E-3,
,,,-215.79998429E-6,560.000002384E-3,,,,,-215.79998429E-6,219.99999881E-3,
,,,-215.59998277E-6,519.999980927E-3,,,,,-215.59998277E-6,219.99999881E-3,
,,,-215.39998124E-6,519.999980927E-3,,,,,-215.39998124E-6,219.99999881E-3,
,,,-215.19997972E-6,560.000002384E-3,,,,,-215.19997972E-6,219.99999881E-3,
,,,-214.99997820E-6,519.999980927E-3,,,,,-214.99997820E-6,239.99999464E-3,
,,,-214.79997667E-6,560.000002384E-3,,,,,-214.79997667E-6,239.99999464E-3,
,,,-214.59997515E-6,560.000002384E-3,,,,,-214.59997515E-6,239.99999464E-3,
,,,-214.39998818E-6,560.000002384E-3,,,,,-214.39998818E-6,219.99999881E-3,
,,,-214.19998666E-6,560.000002384E-3,,,,,-214.19998666E-6,239.99999464E-3,
,,,-213.99998514E-6,560.000002384E-3,,,,,-213.99998514E-6,219.99999881E-3,
,,,-213.79998361E-6,560.000002384E-3,,,,,-213.79998361E-6,239.99999464E-3,
,,,-213.59998209E-6,560.000002384E-3,,,,,-213.59998209E-6,239.99999464E-3,
,,,-213.39998057E-6,560.000002384E-3,,,,,-213.39998057E-6,239.99999464E-3,
,,,-213.19997904E-6,560.000002384E-3,,,,,-213.19997904E-6,219.99999881E-3,
,,,-212.99997752E-6,560.000002384E-3,,,,,-212.99997752E-6,239.99999464E-3,
,,,-212.79997600E-6,560.000002384E-3,,,,,-212.79997600E-6,219.99999881E-3,
,,,-212.59998903E-6,560.000002384E-3,,,,,-212.59998903E-6,239.99999464E-3,
,,,-212.39998750E-6,560.000002384E-3,,,,,-212.39998750E-6,219.99999881E-3,
,,,-212.19998598E-6,560.000002384E-3,,,,,-212.19998598E-6,239.99999464E-3,
,,,-211.99998446E-6,560.000002384E-3,,,,,-211.99998446E-6,219.99999881E-3,
,,,-211.79998294E-6,560.000002384E-3,,,,,-211.79998294E-6,239.99999464E-3,
,,,-211.59998141E-6,560.000002384E-3,,,,,-211.59998141E-6,239.99999464E-3,
,,,-211.39997989E-6,560.000002384E-3,,,,,-211.39997989E-6,219.99999881E-3,
,,,-211.19997837E-6,560.000002384E-3,,,,,-211.19997837E-6,219.99999881E-3,
,,,-210.99997684E-6,560.000002384E-3,,,,,-210.99997684E-6,219.99999881E-3,
,,,-210.79997532E-6,599.999964237E-3,,,,,-210.79997532E-6,219.99999881E-3,
,,,-210.59998835E-6,599.999964237E-3,,,,,-210.59998835E-6,219.99999881E-3,
,,,-210.39998683E-6,599.999964237E-3,,,,,-210.39998683E-6,219.99999881E-3,
,,,-210.19998530E-6,599.999964237E-3,,,,,-210.19998530E-6,239.99999464E-3,
,,,-209.99998378E-6,599.999964237E-3,,,,,-209.99998378E-6,219.99999881E-3,
,,,-209.79998226E-6,599.999964237E-3,,,,,-209.79998226E-6,239.99999464E-3,
,,,-209.59998074E-6,599.999964237E-3,,,,,-209.59998074E-6,219.99999881E-3,
,,,-209.39997921E-6,599.999964237E-3,,,,,-209.39997921E-6,239.99999464E-3,
,,,-209.19997769E-6,599.999964237E-3,,,,,-209.19997769E-6,239.99999464E-3,
,,,-208.99997617E-6,599.999964237E-3,,,,,-208.99997617E-6,239.99999464E-3,
,,,-208.79998920E-6,599.999964237E-3,,,,,-208.79998920E-6,219.99999881E-3,
,,,-208.59998767E-6,599.999964237E-3,,,,,-208.59998767E-6,239.99999464E-3,
,,,-208.39998615E-6,599.999964237E-3,,,,,-208.39998615E-6,239.99999464E-3,
,,,-208.19998463E-6,599.999964237E-3,,,,,-208.19998463E-6,239.99999464E-3,
,,,-207.99998310E-6,599.999964237E-3,,,,,-207.99998310E-6,219.99999881E-3,
,,,-207.79998158E-6,599.999964237E-3,,,,,-207.79998158E-6,239.99999464E-3,
,,,-207.59998006E-6,599.999964237E-3,,,,,-207.59998006E-6,219.99999881E-3,
,,,-207.39997854E-6,599.999964237E-3,,,,,-207.39997854E-6,239.99999464E-3,
,,,-207.19997701E-6,599.999964237E-3,,,,,-207.19997701E-6,219.99999881E-3,
,,,-206.99997549E-6,599.999964237E-3,,,,,-206.99997549E-6,239.99999464E-3,
,,,-206.79998852E-6,639.999985695E-3,,,,,-206.79998852E-6,219.99999881E-3,
,,,-206.59998700E-6,639.999985695E-3,,,,,-206.59998700E-6,239.99999464E-3,
,,,-206.39998547E-6,639.999985695E-3,,,,,-206.39998547E-6,219.99999881E-3,
,,,-206.19998395E-6,639.999985695E-3,,,,,-206.19998395E-6,239.99999464E-3,
,,,-205.99998243E-6,639.999985695E-3,,,,,-205.99998243E-6,239.99999464E-3,
,,,-205.79998090E-6,639.999985695E-3,,,,,-205.79998090E-6,239.99999464E-3,
,,,-205.59997938E-6,639.999985695E-3,,,,,-205.59997938E-6,239.99999464E-3,
,,,-205.39997786E-6,639.999985695E-3,,,,,-205.39997786E-6,219.99999881E-3,
,,,-205.19997634E-6,639.999985695E-3,,,,,-205.19997634E-6,239.99999464E-3,
,,,-204.99998936E-6,639.999985695E-3,,,,,-204.99998936E-6,239.99999464E-3,
,,,-204.79998784E-6,639.999985695E-3,,,,,-204.79998784E-6,219.99999881E-3,
,,,-204.59998632E-6,639.999985695E-3,,,,,-204.59998632E-6,219.99999881E-3,
,,,-204.39998480E-6,639.999985695E-3,,,,,-204.39998480E-6,239.99999464E-3,
,,,-204.19998327E-6,639.999985695E-3,,,,,-204.19998327E-6,239.99999464E-3,
,,,-203.99998175E-6,639.999985695E-3,,,,,-203.99998175E-6,239.99999464E-3,
,,,-203.79998023E-6,639.999985695E-3,,,,,-203.79998023E-6,239.99999464E-3,
,,,-203.59997870E-6,639.999985695E-3,,,,,-203.59997870E-6,219.99999881E-3,
,,,-203.39997718E-6,639.999985695E-3,,,,,-203.39997718E-6,239.99999464E-3,
,,,-203.19997566E-6,639.999985695E-3,,,,,-203.19997566E-6,219.99999881E-3,
,,,-202.99998869E-6,680.000007153E-3,,,,,-202.99998869E-6,219.99999881E-3,
,,,-202.79998716E-6,639.999985695E-3,,,,,-202.79998716E-6,239.99999464E-3,
,,,-202.59998564E-6,680.000007153E-3,,,,,-202.59998564E-6,239.99999464E-3,
,,,-202.39998412E-6,680.000007153E-3,,,,,-202.39998412E-6,239.99999464E-3,
,,,-202.19998260E-6,680.000007153E-3,,,,,-202.19998260E-6,239.99999464E-3,
,,,-201.99998107E-6,680.000007153E-3,,,,,-201.99998107E-6,219.99999881E-3,
,,,-201.79997955E-6,680.000007153E-3,,,,,-201.79997955E-6,239.99999464E-3,
,,,-201.59997803E-6,680.000007153E-3,,,,,-201.59997803E-6,219.99999881E-3,
,,,-201.39997650E-6,680.000007153E-3,,,,,-201.39997650E-6,219.99999881E-3,
,,,-201.19997498E-6,680.000007153E-3,,,,,-201.19997498E-6,219.99999881E-3,
,,,-200.99998801E-6,680.000007153E-3,,,,,-200.99998801E-6,219.99999881E-3,
,,,-200.79998649E-6,680.000007153E-3,,,,,-200.79998649E-6,219.99999881E-3,
,,,-200.59998496E-6,680.000007153E-3,,,,,-200.59998496E-6,219.99999881E-3,
,,,-200.39998344E-6,680.000007153E-3,,,,,-200.39998344E-6,239.99999464E-3,
,,,-200.19998192E-6,680.000007153E-3,,,,,-200.19998192E-6,239.99999464E-3,
,,,-199.99998040E-6,680.000007153E-3,,,,,-199.99998040E-6,239.99999464E-3,
,,,-199.79997887E-6,680.000007153E-3,,,,,-199.79997887E-6,239.99999464E-3,
,,,-199.59997735E-6,680.000007153E-3,,,,,-199.59997735E-6,219.99999881E-3,
,,,-199.39997583E-6,680.000007153E-3,,,,,-199.39997583E-6,239.99999464E-3,
,,,-199.19998886E-6,680.000007153E-3,,,,,-199.19998886E-6,239.99999464E-3,
,,,-198.99998733E-6,680.000007153E-3,,,,,-198.99998733E-6,219.99999881E-3,
,,,-198.79998581E-6,719.999969006E-3,,,,,-198.79998581E-6,239.99999464E-3,
,,,-198.59998429E-6,719.999969006E-3,,,,,-198.59998429E-6,219.99999881E-3,
,,,-198.39998276E-6,719.999969006E-3,,,,,-198.39998276E-6,219.99999881E-3,
,,,-198.19998124E-6,719.999969006E-3,,,,,-198.19998124E-6,219.99999881E-3,
